TrigSignatureMoniMT                                INFO HLT_j35_gsc45_bmv2c1070_split_L1J20100       100       35        31        31        
TrigSignatureMoniMT                                INFO HLT_j35_gsc45_bmv2c1070_split_L1J20 decisions                    89        57        
TrigSignatureMoniMT                                INFO HLT_j35_gsc45_boffperf_split_L1J20100       100       35        31        31        
TrigSignatureMoniMT                                INFO HLT_j35_gsc45_boffperf_split_L1J20 decisions                    89        57   
